R4HR - Club de R para RRHH - Dale a tu gráfico alegría Macarena
…
Empecemos con algo simple, calculemos la mediana salarial por puesto y por año:

Ver código

# Creamos una tabla con la mediana salarial por puesto por año
mediana_anual <- kiwi |>                         # Creamos una tabla nueva
  group_by(anio, puesto) |>                      # Agrupamos por anio y puesto
  summarise(mediana = median(sueldo_bruto)) |>   # Calculamos la mediana salarial
  ungroup()

mediana_anual

# A tibble: 24 × 3
    anio puesto         mediana
   <int> <chr>            <dbl>
 1  2020 Administrativo  46000 
 2  2020 Analista        64248.
 3  2020 Gerente        175000 
 4  2020 HRBP            85000 
 5  2020 Jefe           106012 
 6  2020 Responsable     75000 
 7  2021 Administrativo  70000 
 8  2021 Analista       105000 
 9  2021 Gerente        283000 
10  2021 HRBP           135000 
# ℹ 14 more rows
…
